[
  {
    "model": "student_api.student",
    "pk": 1,
    "fields": {
      "department": 1,
      "first_name": "Lionel",
      "last_name": "Messi"
    }
  },
  {
    "model": "student_api.student",
    "pk": 2,
    "fields": {
      "department": 1,
      "first_name": "Cristiano",
      "last_name": "Ronaldo"
    }
  },
  {
    "model": "student_api.student",
    "pk": 3,
    "fields": {
      "department": 2,
      "first_name": "Joe",
      "last_name": "Biden"
    }
  },
  {
    "model": "student_api.student",
    "pk": 4,
    "fields": {
      "department": 3,
      "first_name": "Barrack",
      "last_name": "Obama"
    }
  },
  {
    "model": "student_api.student",
    "pk": 5,
    "fields": {
      "department": 2,
      "first_name": "Jose",
      "last_name": "Rizal"
    }
  },
  {
    "model": "student_api.student",
    "pk": 6,
    "fields": {
      "department": 1,
      "first_name": "Leonardo",
      "last_name": "Da Vinci"
    }
  }
]
